9
0, 0, 0, 9, 8, 0, 0, 0, 0
0, 0, 0, 0, 0, 0, 9, 0, 0
5, 0, 0, 0, 0, 0, 0, 0, 0
0, 9, 0, 0, 0, 0, 0, 0, 0
0, 0, 0, 0, 9, 0, 0, 0, 0
0, 0, 0, 0, 0, 0, 0, 9, 0
0, 0, 9, 0, 0, 0, 0, 0, 0
0, 0, 0, 0, 0, 9, 0, 0, 0
0, 0, 0, 0, 0, 0, 0, 0, 9
